…
`GetAPIVersion()`

`GetAPIStatus()`

`GetMarketTime()`

## Examples

### Functions Requiring Authentication

``` r
GetAccountHoldings(APIKeys = APIKeys, acctNum = accountNum)
```

    ## # A tibble: 27 x 6
    ##    Sym   Price SecType PutOrCall Qty   Desc                        
    ##    <chr> <chr> <chr>   <chr>     <chr> <chr>                       
    ##  1 AAP   2.80  OPT     1         1.00  AAP Jun 19 2020 140.00 Call 
    ##  2 AXP   3.75  OPT     1         1.00  AXP Jul 17 2020 105.00 Call 
    ##  3 CAT   1.15  OPT     1         1.00  CAT Jun 19 2020 125.00 Call 
    ##  4 CAT   0.44  OPT     1         1.00  CAT Jun 19 2020 135.00 Call 
    ##  5 CAT   4.70  OPT     1         1.00  CAT Aug 21 2020 110.00 Call 
    ##  6 CTXS  5.10  OPT     1         1.00  CTXS Jun 19 2020 115.00 Call
    ##  7 CVX   1.78  OPT     1         1.00  CVX Jun 19 2020 97.50 Call  
    ##  8 CVX   0.35  OPT     1         1.00  CVX Jun 19 2020 110.00 Call 
    ##  9 CVX   5.50  OPT     1         1.00  CVX Sep 18 2020 87.50 Call  
    ## 10 DE    1.58  OPT     1         1.00  DE Jun 19 2020 175.00 Call  
    ## # … with 17 more rows
…
